{
    "KPlugin": {
        "Authors": [
            {
                "Email": "aseigo@kde.org",
                "Name": "Aaron Seigo",
                "Name[ar]": "Aaron Seigo",
                "Name[az]": "Aaron Seigo",
                "Name[ca@valencia]": "Aaron Seigo",
                "Name[ca]": "Aaron Seigo",
                "Name[cs]": "Aaron Seigo",
                "Name[da]": "Aaron Seigo",
                "Name[de]": "Aaron Seigo",
                "Name[en_GB]": "Aaron Seigo",
                "Name[es]": "Aaron Seigo",
                "Name[eu]": "Aaron Seigo",
                "Name[fi]": "Aaron Seigo",
                "Name[fr]": "Aaron Seigo",
                "Name[hu]": "Aaron Seigo",
                "Name[ia]": "Aaron Seigo",
                "Name[id]": "Aaron Seigo",
                "Name[it]": "Aaron Seigo",
                "Name[ka]": "აარონ სეიგო",
                "Name[ko]": "Aaron Seigo",
                "Name[lt]": "Aaron Seigo",
                "Name[nl]": "Aaron Seigo",
                "Name[nn]": "Aaron Seigo",
                "Name[pl]": "Aaron Seigo",
                "Name[pt]": "Aaron Seigo",
                "Name[pt_BR]": "Aaron Seigo",
                "Name[ro]": "Aaron Seigo",
                "Name[ru]": "Aaron Seigo",
                "Name[sk]": "Aaron Seigo",
                "Name[sl]": "Aaron Seigo",
                "Name[sv]": "Aaron Seigo",
                "Name[ta]": "ஆரோன் சீகோ",
                "Name[tr]": "Aaron Seigo",
                "Name[uk]": "Aaron Seigo",
                "Name[vi]": "Aaron Seigo",
                "Name[x-test]": "xxAaron Seigoxx",
                "Name[zh_CN]": "Aaron Seigo"
            }
        ],
        "Category": "Date and Time",
        "Description": "Date and time by timezone",
        "Description[ar]": "التاريخ والوقت بالمنطقة الزمنية",
        "Description[az]": "Saat qurşağna uyğun tarix və vaxt",
        "Description[ca@valencia]": "Data i hora per zona horària",
        "Description[ca]": "Data i hora per zona horària",
        "Description[cs]": "Datum a čas podle časového pásma",
        "Description[da]": "Dato og klokkeslæt efter tidszone",
        "Description[de]": "Datum und Zeit nach Zeitzone",
        "Description[en_GB]": "Date and time by timezone",
        "Description[es]": "Fecha y hora por zona horaria",
        "Description[eu]": "Data eta ordua ordu-eremuaren arabera",
        "Description[fi]": "Aika ja päiväys aikavyöhykkeittäin",
        "Description[fr]": "Date et heure par fuseau horaire",
        "Description[hu]": "Dátum és idő (időzónánként)",
        "Description[ia]": "Data e tempore per fuso horari",
        "Description[id]": "Tanggal dan waktu menurut zona",
        "Description[it]": "Data e ora per fuso orario",
        "Description[ko]": "시간대에 따른 날짜와 시간",
        "Description[lt]": "Data ir laikas pagal laiko juostą",
        "Description[nl]": "Datum en tijd per tijdzone",
        "Description[nn]": "Dato og klokkeslett i ulike tidssoner",
        "Description[pa]": "ਤਾਰੀਖ ਅਤੇ ਟਾਈਮ ਸਮਾਂ-ਖੇਤਰ ਰਾਹੀਂ",
        "Description[pl]": "Ustawienia daty i czasu na podstawie strefy czasowej",
        "Description[pt]": "Data e hora pelo fuso-horário",
        "Description[pt_BR]": "Data e hora por fuso horário",
        "Description[ro]": "Data și ora după fusul orar",
        "Description[ru]": "Дата и время в различных часовых поясах",
        "Description[sk]": "Dátum a čas podľa časového pásma",
        "Description[sl]": "Datum in čas po časovnih pasovih",
        "Description[sv]": "Datum och tid enligt tidszon",
        "Description[ta]": "கால மண்டலத்தை பொறுத்த தேதி மற்றும் நேரம்",
        "Description[tr]": "Zaman dilimine göre tarih ve saat",
        "Description[uk]": "Дата і час за часовими поясами",
        "Description[vi]": "Ngày giờ theo múi giờ",
        "Description[x-test]": "xxDate and time by timezonexx",
        "Description[zh_CN]": "根据时区提供日期和时间",
        "EnabledByDefault": true,
        "Icon": "preferences-system-time",
        "Id": "time",
        "License": "LGPL",
        "Name": "Date and Time",
        "Name[ar]": "التاريخ والوقت",
        "Name[as]": "তাৰিখ আৰু সময়",
        "Name[ast]": "Data y hora",
        "Name[az]": "Tarix və Vaxt",
        "Name[be@latin]": "Data j čas",
        "Name[bg]": "Дата и час",
        "Name[bn]": "তারিখ এবং সময়",
        "Name[bn_IN]": "তারিখ ও সময়",
        "Name[bs]": "Datum i vrijeme",
        "Name[ca@valencia]": "Data i hora",
        "Name[ca]": "Data i hora",
        "Name[cs]": "Datum a čas",
        "Name[csb]": "Datum ë czas",
        "Name[da]": "Dato og klokkeslæt",
        "Name[de]": "Datum und Zeit",
        "Name[el]": "Ημερομηνία και ώρα",
        "Name[en_GB]": "Date and Time",
        "Name[eo]": "Dato kaj Tempo",
        "Name[es]": "Fecha y hora",
        "Name[et]": "Kuupäev ja kellaaeg",
        "Name[eu]": "Data eta ordua",
        "Name[fa]": "تاریخ و زمان",
        "Name[fi]": "Aika ja päiväys",
        "Name[fr]": "Date et heure",
        "Name[fy]": "Datum en tiid",
        "Name[ga]": "Dáta agus Am",
        "Name[gl]": "Data e hora",
        "Name[gu]": "તારીખ અને સમય",
        "Name[he]": "תאריך ושעה",
        "Name[hi]": "तारीख़ और समय",
        "Name[hne]": "तारीक अउ समय",
        "Name[hr]": "Datum i vrijeme",
        "Name[hsb]": "Datum a čas",
        "Name[hu]": "Dátum és idő",
        "Name[ia]": "Data e Tempore",
        "Name[id]": "Tanggal dan Waktu",
        "Name[is]": "Dagur og tími",
        "Name[it]": "Data e ora",
        "Name[ja]": "日付と時刻",
        "Name[ka]": "თარიღი და დრო",
        "Name[kk]": "Күні мен уақыты",
        "Name[km]": "កាល​បរិច្ឆេទ និង​ពេលវេលា",
        "Name[kn]": "ದಿನಾಂಕ ಮತ್ತು ಸಮಯ",
        "Name[ko]": "날짜와 시간",
        "Name[ku]": "Dîrok û Dem",
        "Name[lt]": "Data ir laikas",
        "Name[lv]": "Datums un laiks",
        "Name[mai]": "दिनाँक आ समय",
        "Name[mk]": "Датум и време",
        "Name[ml]": "തീയതിയും സമയവും",
        "Name[mr]": "दिनांक व वेळ",
        "Name[nb]": "Dato og klokkeslett",
        "Name[nds]": "Datum un Tiet",
        "Name[nl]": "Datum en tijd",
        "Name[nn]": "Dato og klokkeslett",
        "Name[or]": "ତାରିଖ ଏବଂ ସମୟ",
        "Name[pa]": "ਮਿਤੀ ਅਤੇ ਟਾਈਮ",
        "Name[pl]": "Data i czas",
        "Name[pt]": "Data e Hora",
        "Name[pt_BR]": "Data e hora",
        "Name[ro]": "Data și ora",
        "Name[ru]": "Дата и время",
        "Name[si]": "දිනය සහ වේලාව",
        "Name[sk]": "Dátum a čas",
        "Name[sl]": "Datum in čas",
        "Name[sr@ijekavian]": "датум и време",
        "Name[sr@ijekavianlatin]": "datum i vreme",
        "Name[sr@latin]": "datum i vreme",
        "Name[sr]": "датум и време",
        "Name[sv]": "Datum och tid",
        "Name[ta]": "தேதி மற்றும் நேரம்",
        "Name[tg]": "Сана ва вақт",
        "Name[th]": "วันและเวลา",
        "Name[tr]": "Tarih ve Saat",
        "Name[ug]": "چېسلا ۋە ۋاقىت",
        "Name[uk]": "Дата і час",
        "Name[vi]": "Ngày giờ",
        "Name[wa]": "Date eyet eure",
        "Name[x-test]": "xxDate and Timexx",
        "Name[zh_CN]": "日期和时间",
        "Name[zh_TW]": "日期與時間",
        "Website": "https://www.kde.org/plasma-desktop"
    }
}
